^E:\PEOPLECANFLY\PROJECTS_STUDIO\SNAKE GAME\BUILD\RELEASE\CONTROL.OBJ|E:\PEOPLECANFLY\PROJECTS_STUDIO\SNAKE GAME\BUILD\RELEASE\FOOD.OBJ|E:\PEOPLECANFLY\PROJECTS_STUDIO\SNAKE GAME\BUILD\RELEASE\MENUITEM.OBJ|E:\PEOPLECANFLY\PROJECTS_STUDIO\SNAKE GAME\BUILD\RELEASE\PLAY.OBJ|E:\PEOPLECANFLY\PROJECTS_STUDIO\SNAKE GAME\BUILD\RELEASE\SNAKE.OBJ|E:\PEOPLECANFLY\PROJECTS_STUDIO\SNAKE GAME\BUILD\RELEASE\SNAKE_GAME.OBJ
C:\PROGRAM FILES\MICROSOFT SDKS\WINDOWS\V7.0A\LIB\KERNEL32.LIB
C:\PROGRAM FILES\MICROSOFT SDKS\WINDOWS\V7.0A\LIB\USER32.LIB
C:\PROGRAM FILES\MICROSOFT SDKS\WINDOWS\V7.0A\LIB\GDI32.LIB
C:\PROGRAM FILES\MICROSOFT SDKS\WINDOWS\V7.0A\LIB\WINSPOOL.LIB
C:\PROGRAM FILES\MICROSOFT SDKS\WINDOWS\V7.0A\LIB\COMDLG32.LIB
C:\PROGRAM FILES\MICROSOFT SDKS\WINDOWS\V7.0A\LIB\ADVAPI32.LIB
C:\PROGRAM FILES\MICROSOFT SDKS\WINDOWS\V7.0A\LIB\SHELL32.LIB
C:\PROGRAM FILES\MICROSOFT SDKS\WINDOWS\V7.0A\LIB\OLE32.LIB
C:\PROGRAM FILES\MICROSOFT SDKS\WINDOWS\V7.0A\LIB\OLEAUT32.LIB
C:\PROGRAM FILES\MICROSOFT SDKS\WINDOWS\V7.0A\LIB\UUID.LIB
C:\PROGRAM FILES\MICROSOFT SDKS\WINDOWS\V7.0A\LIB\ODBC32.LIB
C:\PROGRAM FILES\MICROSOFT SDKS\WINDOWS\V7.0A\LIB\ODBCCP32.LIB
E:\PEOPLECANFLY\PROJECTS_STUDIO\SNAKE GAME\LIB\HGE.LIB
E:\PEOPLECANFLY\PROJECTS_STUDIO\SNAKE GAME\LIB\HGEHELP.LIB
E:\PEOPLECANFLY\PROJECTS_STUDIO\SNAKE GAME\BUILD\RELEASE\CONTROL.OBJ
E:\PEOPLECANFLY\PROJECTS_STUDIO\SNAKE GAME\BUILD\RELEASE\FOOD.OBJ
E:\PEOPLECANFLY\PROJECTS_STUDIO\SNAKE GAME\BUILD\RELEASE\MENUITEM.OBJ
E:\PEOPLECANFLY\PROJECTS_STUDIO\SNAKE GAME\BUILD\RELEASE\PLAY.OBJ
E:\PEOPLECANFLY\PROJECTS_STUDIO\SNAKE GAME\BUILD\RELEASE\SNAKE.OBJ
E:\PEOPLECANFLY\PROJECTS_STUDIO\SNAKE GAME\BUILD\RELEASE\SNAKE_GAME.OBJ
C:\WINDOWS\GLOBALIZATION\SORTING\SORTDEFAULT.NLS
C:\PROGRAM FILES\MICROSOFT VISUAL STUDIO 10.0\VC\BIN\C2.DLL
C:\PROGRAM FILES\MICROSOFT VISUAL STUDIO 10.0\VC\LIB\MSVCPRT.LIB
C:\PROGRAM FILES\MICROSOFT VISUAL STUDIO 10.0\VC\LIB\MSVCRT.LIB
C:\PROGRAM FILES\MICROSOFT VISUAL STUDIO 10.0\VC\LIB\OLDNAMES.LIB
C:\PROGRAM FILES\MICROSOFT VISUAL STUDIO 10.0\VC\BIN\1033\LINKUI.DLL
C:\WINDOWS\SYSTEM32\TZRES.DLL
